#Command: "C:\Program Files (x86)\Microsoft Visual Studio 10.0\Common7\IDE\VWDExpress.exe" "E:\IMQ\Frontend20120626\IMQ-KPEI.sln"
E:\IMQ\FRONTEND20120626\FASTJSON\OBJ\DEBUG\DESIGNTIMERESOLVEASSEMBLYREFERENCESINPUT.CACHE
E:\IMQ\FRONTEND20120626\COMMON\OBJ\DEBUG\DESIGNTIMERESOLVEASSEMBLYREFERENCESINPUT.CACHE
E:\IMQ\FRONTEND20120626\FASTJSON\OBJ\DEBUG\DESIGNTIMERESOLVEASSEMBLYREFERENCESINPUT.CACHE
E:\IMQ\FRONTEND20120626\COMMON\OBJ\DEBUG\DESIGNTIMERESOLVEASSEMBLYREFERENCESINPUT.CACHE
E:\IMQ\FRONTEND20120626\KPEI1\OBJ\DEBUG\DESIGNTIMERESOLVEASSEMBLYREFERENCESINPUT.CACHE
