#Command: "C:\Program Files (x86)\Microsoft Visual Studio 10.0\Common7\IDE\VWDExpress.exe" "E:\IMQ\Frontend20120625\IMQ-KPEI.sln"
E:\IMQ\FRONTEND20120625\FASTJSON\OBJ\DEBUG\DESIGNTIMERESOLVEASSEMBLYREFERENCESINPUT.CACHE
E:\IMQ\FRONTEND20120625\COMMON\OBJ\DEBUG\DESIGNTIMERESOLVEASSEMBLYREFERENCESINPUT.CACHE
